…
# load medicare dt
medicare = data.table::fread("/Volumes/George_Surgeon_Projects/standardized_medicare_data_using_R/analysis_ready_data/ecs_primary_surgeon_medicare2018.csv", nrows = 5000)


multiple_procedures_table(medicare, project_sepcific_procedure_tax = "e_proc_grp_lbl")
#> # A tibble: 817 x 2
#>    proc_combo                                                   n_hosp_admission
#>    <chr>                                                                   <int>
#>  1 Ventral hernia repair (open), Ventral Hernia Repair W/Mesh                 27
#>  2 Angiogram, abdomen/pelvis/lower extremity artery, Angiograp…               25
#>  3 Partial colectomy with anastomosis (open), Splenic flexure …               12
#>  4 Transluminal balloon angioplasty, venous (percutaneous), An…               11
#>  5 Angiogram, abdomen/pelvis/lower extremity artery, Angiograp…               10
#>  6 Angiogram, ateriovenous shunt for dialysis, Transluminal ba…                9
#>  7 Angiogram, abdomen/pelvis/lower extremity artery, Translumi…                8
#>  8 Incarcerated/strangulated Ventral hernia repair (open), Ven…                8
#>  9 Infrarenal abdominal aortic aneurysm/dissection repair (end…                8
#> 10 Angiogram, abdomen/pelvis/lower extremity artery, Angiograp…                7
#> # … with 807 more rows
```
…
